{
    "schemes": [
        "http",
        "https"
    ],
    "swagger": "2.0",
    "info": {
        "description": "Swagger api doc for totp-auth-server project.",
        "title": "TOTP-Auth API Doc",
        "termsOfService": "http://swagger.io/terms/",
        "contact": {
            "name": "Dongjun Wu",
            "email": "ziyawu@gmail.com"
        },
        "license": {
            "name": "MIT",
            "url": "https://gitlab.com/vertspirit/totp-auth-server/blob/master/LICENSE"
        },
        "version": "1.0"
    },
    "basePath": "/",
    "paths": {
        "/auth/verify": {
            "get": {
                "description": "verify totp pin code and return username, roles if passed",
                "consumes": [
                    "application/json"
                ],
                "produces": [
                    "application/json"
                ],
                "tags": [
                    "auth"
                ],
                "summary": "Verify TOTP Pin Code",
                "parameters": [
                    {
                        "type": "string",
                        "description": "Pin Code",
                        "name": "TOTP-PIN-CODE",
                        "in": "header",
                        "required": true
                    },
                    {
                        "type": "string",
                        "description": "User Name",
                        "name": "TOTP-USER",
                        "in": "header",
                        "required": true
                    }
                ],
                "responses": {
                    "200": {
                        "description": "Success",
                        "schema": {
                            "type": "string"
                        }
                    },
                    "400": {
                        "description": "Bad request",
                        "schema": {
                            "type": "string"
                        }
                    },
                    "401": {
                        "description": "Unauthorized",
                        "schema": {
                            "type": "string"
                        }
                    },
                    "403": {
                        "description": "Forbidden",
                        "schema": {
                            "type": "string"
                        }
                    },
                    "404": {
                        "description": "Not found",
                        "schema": {
                            "type": "string"
                        }
                    }
                }
            }
        },
        "/info": {
            "get": {
                "description": "get information for this totp auth server",
                "consumes": [
                    "application/json"
                ],
                "produces": [
                    "application/json"
                ],
                "tags": [
                    "info"
                ],
                "summary": "Show Server Information",
                "responses": {
                    "200": {
                        "description": "Success",
                        "schema": {
                            "type": "string"
                        }
                    },
                    "400": {
                        "description": "Bad request",
                        "schema": {
                            "type": "string"
                        }
                    },
                    "401": {
                        "description": "Unauthorized",
                        "schema": {
                            "type": "string"
                        }
                    },
                    "403": {
                        "description": "Forbidden",
                        "schema": {
                            "type": "string"
                        }
                    },
                    "404": {
                        "description": "Not found",
                        "schema": {
                            "type": "string"
                        }
                    }
                }
            }
        },
        "/keygen": {
            "get": {
                "description": "generate random api key, api secret,totp secret key",
                "consumes": [
                    "application/json"
                ],
                "produces": [
                    "application/json"
                ],
                "tags": [
                    "toolkit"
                ],
                "summary": "API Keygen",
                "responses": {
                    "200": {
                        "description": "Success",
                        "schema": {
                            "type": "string"
                        }
                    },
                    "400": {
                        "description": "Bad request",
                        "schema": {
                            "type": "string"
                        }
                    },
                    "401": {
                        "description": "Unauthorized",
                        "schema": {
                            "type": "string"
                        }
                    },
                    "403": {
                        "description": "Forbidden",
                        "schema": {
                            "type": "string"
                        }
                    },
                    "404": {
                        "description": "Not found",
                        "schema": {
                            "type": "string"
                        }
                    }
                }
            }
        },
        "/manage/role/{name}": {
            "post": {
                "security": [
                    {
                        "ApiKeyAuth": []
                    },
                    {
                        "ApiSecretAuth": []
                    },
                    {
                        "ApiUserAuth": []
                    }
                ],
                "description": "create a new role",
                "consumes": [
                    "application/json"
                ],
                "produces": [
                    "application/json"
                ],
                "tags": [
                    "role"
                ],
                "summary": "Create Role",
                "parameters": [
                    {
                        "type": "string",
                        "description": "Role Name",
                        "name": "name",
                        "in": "path",
                        "required": true
                    }
                ],
                "responses": {
                    "200": {
                        "description": "Success",
                        "schema": {
                            "type": "string"
                        }
                    },
                    "400": {
                        "description": "Bad request",
                        "schema": {
                            "type": "string"
                        }
                    },
                    "401": {
                        "description": "Unauthorized",
                        "schema": {
                            "type": "string"
                        }
                    },
                    "403": {
                        "description": "Forbidden",
                        "schema": {
                            "type": "string"
                        }
                    },
                    "404": {
                        "description": "Not found",
                        "schema": {
                            "type": "string"
                        }
                    }
                }
            },
            "delete": {
                "security": [
                    {
                        "ApiKeyAuth": []
                    },
                    {
                        "ApiSecretAuth": []
                    },
                    {
                        "ApiUserAuth": []
                    }
                ],
                "description": "delete a role",
                "consumes": [
                    "application/json"
                ],
                "produces": [
                    "application/json"
                ],
                "tags": [
                    "role"
                ],
                "summary": "Delete Role",
                "parameters": [
                    {
                        "type": "string",
                        "description": "Role Name",
                        "name": "name",
                        "in": "path",
                        "required": true
                    }
                ],
                "responses": {
                    "200": {
                        "description": "Success",
                        "schema": {
                            "type": "string"
                        }
                    },
                    "400": {
                        "description": "Bad request",
                        "schema": {
                            "type": "string"
                        }
                    },
                    "401": {
                        "description": "Unauthorized",
                        "schema": {
                            "type": "string"
                        }
                    },
                    "403": {
                        "description": "Forbidden",
                        "schema": {
                            "type": "string"
                        }
                    },
                    "404": {
                        "description": "Not found",
                        "schema": {
                            "type": "string"
                        }
                    }
                }
            }
        },
        "/manage/role/{name}/user/{user}": {
            "put": {
                "security": [
                    {
                        "ApiKeyAuth": []
                    },
                    {
                        "ApiSecretAuth": []
                    },
                    {
                        "ApiUserAuth": []
                    }
                ],
                "description": "grant a role to the user",
                "consumes": [
                    "application/json"
                ],
                "produces": [
                    "application/json"
                ],
                "tags": [
                    "role"
                ],
                "summary": "Grant Role To User",
                "parameters": [
                    {
                        "type": "string",
                        "description": "User Name",
                        "name": "user",
                        "in": "path",
                        "required": true
                    },
                    {
                        "type": "string",
                        "description": "Role Name",
                        "name": "name",
                        "in": "path",
                        "required": true
                    }
                ],
                "responses": {
                    "200": {
                        "description": "Success",
                        "schema": {
                            "type": "string"
                        }
                    },
                    "400": {
                        "description": "Bad request",
                        "schema": {
                            "type": "string"
                        }
                    },
                    "401": {
                        "description": "Unauthorized",
                        "schema": {
                            "type": "string"
                        }
                    },
                    "403": {
                        "description": "Forbidden",
                        "schema": {
                            "type": "string"
                        }
                    },
                    "404": {
                        "description": "Not found",
                        "schema": {
                            "type": "string"
                        }
                    }
                }
            },
            "delete": {
                "security": [
                    {
                        "ApiKeyAuth": []
                    },
                    {
                        "ApiSecretAuth": []
                    },
                    {
                        "ApiUserAuth": []
                    }
                ],
                "description": "remove a role from user",
                "consumes": [
                    "application/json"
                ],
                "produces": [
                    "application/json"
                ],
                "tags": [
                    "role"
                ],
                "summary": "Delete Role From User",
                "parameters": [
                    {
                        "type": "string",
                        "description": "User Name",
                        "name": "user",
                        "in": "path",
                        "required": true
                    },
                    {
                        "type": "string",
                        "description": "Role Name",
                        "name": "name",
                        "in": "path",
                        "required": true
                    }
                ],
                "responses": {
                    "200": {
                        "description": "Success",
                        "schema": {
                            "type": "string"
                        }
                    },
                    "400": {
                        "description": "Bad request",
                        "schema": {
                            "type": "string"
                        }
                    },
                    "401": {
                        "description": "Unauthorized",
                        "schema": {
                            "type": "string"
                        }
                    },
                    "403": {
                        "description": "Forbidden",
                        "schema": {
                            "type": "string"
                        }
                    },
                    "404": {
                        "description": "Not found",
                        "schema": {
                            "type": "string"
                        }
                    }
                }
            }
        },
        "/manage/roles/{limits}": {
            "get": {
                "security": [
                    {
                        "ApiKeyAuth": []
                    },
                    {
                        "ApiSecretAuth": []
                    },
                    {
                        "ApiUserAuth": []
                    }
                ],
                "description": "get all roles",
                "consumes": [
                    "application/json"
                ],
                "produces": [
                    "application/json"
                ],
                "tags": [
                    "role"
                ],
                "summary": "Show All Roles",
                "parameters": [
                    {
                        "type": "string",
                        "default": "0",
                        "description": "Query Limits",
                        "name": "limits",
                        "in": "path",
                        "required": true
                    }
                ],
                "responses": {
                    "200": {
                        "description": "Success",
                        "schema": {
                            "type": "string"
                        }
                    },
                    "400": {
                        "description": "Bad request",
                        "schema": {
                            "type": "string"
                        }
                    },
                    "401": {
                        "description": "Unauthorized",
                        "schema": {
                            "type": "string"
                        }
                    },
                    "403": {
                        "description": "Forbidden",
                        "schema": {
                            "type": "string"
                        }
                    },
                    "404": {
                        "description": "Not found",
                        "schema": {
                            "type": "string"
                        }
                    }
                }
            }
        },
        "/manage/user/{name}": {
            "post": {
                "security": [
                    {
                        "ApiKeyAuth": []
                    },
                    {
                        "ApiSecretAuth": []
                    },
                    {
                        "ApiUserAuth": []
                    }
                ],
                "description": "create a new user with random secret",
                "consumes": [
                    "application/json"
                ],
                "produces": [
                    "application/json"
                ],
                "tags": [
                    "user"
                ],
                "summary": "Create User",
                "parameters": [
                    {
                        "type": "string",
                        "description": "User Name",
                        "name": "name",
                        "in": "path",
                        "required": true
                    },
                    {
                        "type": "string",
                        "description": "Secret Key",
                        "name": "secret",
                        "in": "path"
                    }
                ],
                "responses": {
                    "200": {
                        "description": "Success",
                        "schema": {
                            "type": "string"
                        }
                    },
                    "400": {
                        "description": "Bad request",
                        "schema": {
                            "type": "string"
                        }
                    },
                    "401": {
                        "description": "Unauthorized",
                        "schema": {
                            "type": "string"
                        }
                    },
                    "403": {
                        "description": "Forbidden",
                        "schema": {
                            "type": "string"
                        }
                    },
                    "404": {
                        "description": "Not found",
                        "schema": {
                            "type": "string"
                        }
                    }
                }
            },
            "delete": {
                "security": [
                    {
                        "ApiKeyAuth": []
                    },
                    {
                        "ApiSecretAuth": []
                    },
                    {
                        "ApiUserAuth": []
                    }
                ],
                "description": "delete an existing user",
                "consumes": [
                    "application/json"
                ],
                "produces": [
                    "application/json"
                ],
                "tags": [
                    "user"
                ],
                "summary": "Delete User",
                "parameters": [
                    {
                        "type": "string",
                        "description": "User Name",
                        "name": "name",
                        "in": "path",
                        "required": true
                    }
                ],
                "responses": {
                    "200": {
                        "description": "Success",
                        "schema": {
                            "type": "string"
                        }
                    },
                    "400": {
                        "description": "Bad request",
                        "schema": {
                            "type": "string"
                        }
                    },
                    "401": {
                        "description": "Unauthorized",
                        "schema": {
                            "type": "string"
                        }
                    },
                    "403": {
                        "description": "Forbidden",
                        "schema": {
                            "type": "string"
                        }
                    },
                    "404": {
                        "description": "Not found",
                        "schema": {
                            "type": "string"
                        }
                    }
                }
            }
        },
        "/manage/user/{name}/apikey": {
            "post": {
                "security": [
                    {
                        "ApiKeyAuth": []
                    },
                    {
                        "ApiSecretAuth": []
                    },
                    {
                        "ApiUserAuth": []
                    }
                ],
                "description": "attach an api key for user",
                "consumes": [
                    "multipart/form-data"
                ],
                "produces": [
                    "application/json"
                ],
                "tags": [
                    "user"
                ],
                "summary": "Create API Key For User",
                "parameters": [
                    {
                        "type": "string",
                        "description": "User Name",
                        "name": "name",
                        "in": "path",
                        "required": true
                    },
                    {
                        "type": "string",
                        "description": "API Key",
                        "name": "api-key",
                        "in": "formData"
                    },
                    {
                        "type": "string",
                        "description": "API Secret (salt)",
                        "name": "api-secret",
                        "in": "formData"
                    }
                ],
                "responses": {
                    "200": {
                        "description": "Success",
                        "schema": {
                            "type": "string"
                        }
                    },
                    "400": {
                        "description": "Bad request",
                        "schema": {
                            "type": "string"
                        }
                    },
                    "401": {
                        "description": "Unauthorized",
                        "schema": {
                            "type": "string"
                        }
                    },
                    "403": {
                        "description": "Forbidden",
                        "schema": {
                            "type": "string"
                        }
                    },
                    "404": {
                        "description": "Not found",
                        "schema": {
                            "type": "string"
                        }
                    }
                }
            }
        },
        "/manage/user/{name}/qrcode": {
            "get": {
                "security": [
                    {
                        "ApiKeyAuth": []
                    },
                    {
                        "ApiSecretAuth": []
                    },
                    {
                        "ApiUserAuth": []
                    }
                ],
                "description": "get user secret key and show it with qrcode",
                "consumes": [
                    "application/json"
                ],
                "produces": [
                    "image/png"
                ],
                "tags": [
                    "user"
                ],
                "summary": "Show User Key QRcode",
                "parameters": [
                    {
                        "type": "string",
                        "description": "User Name",
                        "name": "name",
                        "in": "path",
                        "required": true
                    }
                ],
                "responses": {
                    "200": {
                        "description": "Success",
                        "schema": {
                            "type": "string"
                        }
                    },
                    "400": {
                        "description": "Bad request",
                        "schema": {
                            "type": "string"
                        }
                    },
                    "401": {
                        "description": "Unauthorized",
                        "schema": {
                            "type": "string"
                        }
                    },
                    "403": {
                        "description": "Forbidden",
                        "schema": {
                            "type": "string"
                        }
                    },
                    "404": {
                        "description": "Not found",
                        "schema": {
                            "type": "string"
                        }
                    }
                }
            }
        },
        "/manage/user/{name}/rename/{new}": {
            "put": {
                "security": [
                    {
                        "ApiKeyAuth": []
                    },
                    {
                        "ApiSecretAuth": []
                    },
                    {
                        "ApiUserAuth": []
                    }
                ],
                "description": "rename user",
                "consumes": [
                    "application/json"
                ],
                "produces": [
                    "application/json"
                ],
                "tags": [
                    "user"
                ],
                "summary": "Rename User",
                "parameters": [
                    {
                        "type": "string",
                        "description": "User Name",
                        "name": "name",
                        "in": "path",
                        "required": true
                    },
                    {
                        "type": "string",
                        "description": "New User Name",
                        "name": "new",
                        "in": "path",
                        "required": true
                    }
                ],
                "responses": {
                    "200": {
                        "description": "Success",
                        "schema": {
                            "type": "string"
                        }
                    },
                    "400": {
                        "description": "Bad request",
                        "schema": {
                            "type": "string"
                        }
                    },
                    "401": {
                        "description": "Unauthorized",
                        "schema": {
                            "type": "string"
                        }
                    },
                    "403": {
                        "description": "Forbidden",
                        "schema": {
                            "type": "string"
                        }
                    },
                    "404": {
                        "description": "Not found",
                        "schema": {
                            "type": "string"
                        }
                    }
                }
            }
        },
        "/manage/user/{name}/role/{role}": {
            "get": {
                "security": [
                    {
                        "ApiKeyAuth": []
                    },
                    {
                        "ApiSecretAuth": []
                    },
                    {
                        "ApiUserAuth": []
                    }
                ],
                "description": "check role for user",
                "consumes": [
                    "application/json"
                ],
                "produces": [
                    "application/json"
                ],
                "tags": [
                    "user"
                ],
                "summary": "Check Role For User",
                "parameters": [
                    {
                        "type": "string",
                        "description": "User Name",
                        "name": "name",
                        "in": "path",
                        "required": true
                    },
                    {
                        "type": "string",
                        "description": "Role Name",
                        "name": "role",
                        "in": "path",
                        "required": true
                    }
                ],
                "responses": {
                    "200": {
                        "description": "Success",
                        "schema": {
                            "type": "string"
                        }
                    },
                    "400": {
                        "description": "Bad request",
                        "schema": {
                            "type": "string"
                        }
                    },
                    "401": {
                        "description": "Unauthorized",
                        "schema": {
                            "type": "string"
                        }
                    },
                    "403": {
                        "description": "Forbidden",
                        "schema": {
                            "type": "string"
                        }
                    },
                    "404": {
                        "description": "Not found",
                        "schema": {
                            "type": "string"
                        }
                    }
                }
            }
        },
        "/manage/user/{name}/roles": {
            "get": {
                "security": [
                    {
                        "ApiKeyAuth": []
                    },
                    {
                        "ApiSecretAuth": []
                    },
                    {
                        "ApiUserAuth": []
                    }
                ],
                "description": "show roles of user",
                "consumes": [
                    "application/json"
                ],
                "produces": [
                    "application/json"
                ],
                "tags": [
                    "user"
                ],
                "summary": "Show Roles Of User",
                "parameters": [
                    {
                        "type": "string",
                        "description": "User Name",
                        "name": "name",
                        "in": "path",
                        "required": true
                    }
                ],
                "responses": {
                    "200": {
                        "description": "Success",
                        "schema": {
                            "type": "string"
                        }
                    },
                    "400": {
                        "description": "Bad request",
                        "schema": {
                            "type": "string"
                        }
                    },
                    "401": {
                        "description": "Unauthorized",
                        "schema": {
                            "type": "string"
                        }
                    },
                    "403": {
                        "description": "Forbidden",
                        "schema": {
                            "type": "string"
                        }
                    },
                    "404": {
                        "description": "Not found",
                        "schema": {
                            "type": "string"
                        }
                    }
                }
            }
        },
        "/manage/user/{name}/secret": {
            "get": {
                "security": [
                    {
                        "ApiKeyAuth": []
                    },
                    {
                        "ApiSecretAuth": []
                    },
                    {
                        "ApiUserAuth": []
                    }
                ],
                "description": "get secret key by username",
                "consumes": [
                    "application/json"
                ],
                "produces": [
                    "application/json"
                ],
                "tags": [
                    "user"
                ],
                "summary": "Show User Secret Key",
                "parameters": [
                    {
                        "type": "string",
                        "description": "User Name",
                        "name": "name",
                        "in": "path",
                        "required": true
                    }
                ],
                "responses": {
                    "200": {
                        "description": "Success",
                        "schema": {
                            "type": "string"
                        }
                    },
                    "400": {
                        "description": "Bad request",
                        "schema": {
                            "type": "string"
                        }
                    },
                    "401": {
                        "description": "Unauthorized",
                        "schema": {
                            "type": "string"
                        }
                    },
                    "403": {
                        "description": "Forbidden",
                        "schema": {
                            "type": "string"
                        }
                    },
                    "404": {
                        "description": "Not found",
                        "schema": {
                            "type": "string"
                        }
                    }
                }
            },
            "put": {
                "security": [
                    {
                        "ApiKeyAuth": []
                    },
                    {
                        "ApiSecretAuth": []
                    },
                    {
                        "ApiUserAuth": []
                    }
                ],
                "description": "regenerate a new secret key for user",
                "consumes": [
                    "application/json"
                ],
                "produces": [
                    "application/json"
                ],
                "tags": [
                    "user"
                ],
                "summary": "Update Secret Key",
                "parameters": [
                    {
                        "type": "string",
                        "description": "User Name",
                        "name": "name",
                        "in": "path",
                        "required": true
                    }
                ],
                "responses": {
                    "200": {
                        "description": "Success",
                        "schema": {
                            "type": "string"
                        }
                    },
                    "400": {
                        "description": "Bad request",
                        "schema": {
                            "type": "string"
                        }
                    },
                    "401": {
                        "description": "Unauthorized",
                        "schema": {
                            "type": "string"
                        }
                    },
                    "403": {
                        "description": "Forbidden",
                        "schema": {
                            "type": "string"
                        }
                    },
                    "404": {
                        "description": "Not found",
                        "schema": {
                            "type": "string"
                        }
                    }
                }
            }
        },
        "/manage/users/{limits}": {
            "get": {
                "security": [
                    {
                        "ApiKeyAuth": []
                    },
                    {
                        "ApiSecretAuth": []
                    },
                    {
                        "ApiUserAuth": []
                    }
                ],
                "description": "get all users",
                "consumes": [
                    "application/json"
                ],
                "produces": [
                    "application/json"
                ],
                "tags": [
                    "user"
                ],
                "summary": "Show All Users",
                "parameters": [
                    {
                        "type": "string",
                        "default": "0",
                        "description": "Query Limits",
                        "name": "limits",
                        "in": "path",
                        "required": true
                    }
                ],
                "responses": {
                    "200": {
                        "description": "Success",
                        "schema": {
                            "type": "string"
                        }
                    },
                    "400": {
                        "description": "Bad request",
                        "schema": {
                            "type": "string"
                        }
                    },
                    "401": {
                        "description": "Unauthorized",
                        "schema": {
                            "type": "string"
                        }
                    },
                    "403": {
                        "description": "Forbidden",
                        "schema": {
                            "type": "string"
                        }
                    },
                    "404": {
                        "description": "Not found",
                        "schema": {
                            "type": "string"
                        }
                    }
                }
            }
        },
        "/manage/whitelist": {
            "get": {
                "security": [
                    {
                        "ApiKeyAuth": []
                    },
                    {
                        "ApiSecretAuth": []
                    },
                    {
                        "ApiUserAuth": []
                    }
                ],
                "description": "show current enabled white list",
                "consumes": [
                    "application/json"
                ],
                "produces": [
                    "application/json"
                ],
                "tags": [
                    "whitelist"
                ],
                "summary": "Show White List",
                "responses": {
                    "200": {
                        "description": "Success",
                        "schema": {
                            "type": "string"
                        }
                    },
                    "400": {
                        "description": "Unable to show current enabled white list",
                        "schema": {
                            "type": "string"
                        }
                    },
                    "401": {
                        "description": "Unauthorized",
                        "schema": {
                            "type": "string"
                        }
                    },
                    "403": {
                        "description": "Forbidden",
                        "schema": {
                            "type": "string"
                        }
                    },
                    "404": {
                        "description": "Not found",
                        "schema": {
                            "type": "string"
                        }
                    }
                }
            }
        },
        "/manage/whitelist/disable/{addr}/{cidr}": {
            "put": {
                "security": [
                    {
                        "ApiKeyAuth": []
                    },
                    {
                        "ApiSecretAuth": []
                    },
                    {
                        "ApiUserAuth": []
                    }
                ],
                "description": "disable ipv4 cidr in white list",
                "consumes": [
                    "application/json"
                ],
                "produces": [
                    "application/json"
                ],
                "tags": [
                    "whitelist"
                ],
                "summary": "Disable CIDR in White List",
                "parameters": [
                    {
                        "type": "string",
                        "description": "IP Address",
                        "name": "addr",
                        "in": "path",
                        "required": true
                    },
                    {
                        "type": "string",
                        "description": "CIDR Bit Count",
                        "name": "cidr",
                        "in": "path",
                        "required": true
                    }
                ],
                "responses": {
                    "200": {
                        "description": "Success",
                        "schema": {
                            "type": "string"
                        }
                    },
                    "400": {
                        "description": "Unable to disable ipv4 cidr in white list",
                        "schema": {
                            "type": "string"
                        }
                    },
                    "401": {
                        "description": "Unauthorized",
                        "schema": {
                            "type": "string"
                        }
                    },
                    "403": {
                        "description": "Forbidden",
                        "schema": {
                            "type": "string"
                        }
                    },
                    "404": {
                        "description": "Not found",
                        "schema": {
                            "type": "string"
                        }
                    }
                }
            }
        },
        "/manage/whitelist/enable/{addr}/{cidr}": {
            "put": {
                "security": [
                    {
                        "ApiKeyAuth": []
                    },
                    {
                        "ApiSecretAuth": []
                    },
                    {
                        "ApiUserAuth": []
                    }
                ],
                "description": "enable ipv4 cidr in white list",
                "consumes": [
                    "application/json"
                ],
                "produces": [
                    "application/json"
                ],
                "tags": [
                    "whitelist"
                ],
                "summary": "Enable CIDR in White List",
                "parameters": [
                    {
                        "type": "string",
                        "description": "IP Address",
                        "name": "addr",
                        "in": "path",
                        "required": true
                    },
                    {
                        "type": "string",
                        "description": "CIDR Bit Count",
                        "name": "cidr",
                        "in": "path",
                        "required": true
                    }
                ],
                "responses": {
                    "200": {
                        "description": "Success",
                        "schema": {
                            "type": "string"
                        }
                    },
                    "400": {
                        "description": "Unable to enable ipv4 cidr in white list",
                        "schema": {
                            "type": "string"
                        }
                    },
                    "401": {
                        "description": "Unauthorized",
                        "schema": {
                            "type": "string"
                        }
                    },
                    "403": {
                        "description": "Forbidden",
                        "schema": {
                            "type": "string"
                        }
                    },
                    "404": {
                        "description": "Not found",
                        "schema": {
                            "type": "string"
                        }
                    }
                }
            }
        },
        "/manage/whitelist/{addr}/{cidr}": {
            "post": {
                "security": [
                    {
                        "ApiKeyAuth": []
                    },
                    {
                        "ApiSecretAuth": []
                    },
                    {
                        "ApiUserAuth": []
                    }
                ],
                "description": "add ipv4 cidr to white list",
                "consumes": [
                    "application/json"
                ],
                "produces": [
                    "application/json"
                ],
                "tags": [
                    "whitelist"
                ],
                "summary": "Add CIDR to White List",
                "parameters": [
                    {
                        "type": "string",
                        "description": "IP Address",
                        "name": "addr",
                        "in": "path",
                        "required": true
                    },
                    {
                        "type": "string",
                        "description": "CIDR Bit Count",
                        "name": "cidr",
                        "in": "path",
                        "required": true
                    }
                ],
                "responses": {
                    "200": {
                        "description": "Success",
                        "schema": {
                            "type": "string"
                        }
                    },
                    "400": {
                        "description": "Unable to add ipv4 cidr to white list",
                        "schema": {
                            "type": "string"
                        }
                    },
                    "401": {
                        "description": "Unauthorized",
                        "schema": {
                            "type": "string"
                        }
                    },
                    "403": {
                        "description": "Forbidden",
                        "schema": {
                            "type": "string"
                        }
                    },
                    "404": {
                        "description": "Not found",
                        "schema": {
                            "type": "string"
                        }
                    }
                }
            },
            "delete": {
                "security": [
                    {
                        "ApiKeyAuth": []
                    },
                    {
                        "ApiSecretAuth": []
                    },
                    {
                        "ApiUserAuth": []
                    }
                ],
                "description": "delete ipv4 cidr from white list",
                "consumes": [
                    "application/json"
                ],
                "produces": [
                    "application/json"
                ],
                "tags": [
                    "whitelist"
                ],
                "summary": "Delete CIDR from White List",
                "parameters": [
                    {
                        "type": "string",
                        "description": "IP Address",
                        "name": "addr",
                        "in": "path",
                        "required": true
                    },
                    {
                        "type": "string",
                        "description": "CIDR Bit Count",
                        "name": "cidr",
                        "in": "path",
                        "required": true
                    }
                ],
                "responses": {
                    "200": {
                        "description": "Success",
                        "schema": {
                            "type": "string"
                        }
                    },
                    "400": {
                        "description": "Unable to delete ipv4 cidr from white list",
                        "schema": {
                            "type": "string"
                        }
                    },
                    "401": {
                        "description": "Unauthorized",
                        "schema": {
                            "type": "string"
                        }
                    },
                    "403": {
                        "description": "Forbidden",
                        "schema": {
                            "type": "string"
                        }
                    },
                    "404": {
                        "description": "Not found",
                        "schema": {
                            "type": "string"
                        }
                    }
                }
            }
        },
        "/rescure/apikey/user/{name}": {
            "post": {
                "description": "regenerate new api key for user by totp and admin role (rescure)",
                "consumes": [
                    "multipart/form-data"
                ],
                "produces": [
                    "application/json"
                ],
                "tags": [
                    "rescure"
                ],
                "summary": "Regenerate API Key For User",
                "parameters": [
                    {
                        "type": "string",
                        "description": "TOTP Pin Code",
                        "name": "TOTP-PIN-CODE",
                        "in": "header",
                        "required": true
                    },
                    {
                        "type": "string",
                        "description": "TOTP User",
                        "name": "TOTP-USER",
                        "in": "header",
                        "required": true
                    },
                    {
                        "type": "string",
                        "description": "User Name",
                        "name": "name",
                        "in": "path",
                        "required": true
                    },
                    {
                        "type": "string",
                        "description": "API Key",
                        "name": "api-key",
                        "in": "formData"
                    },
                    {
                        "type": "string",
                        "description": "API Secret (salt)",
                        "name": "api-secret",
                        "in": "formData"
                    }
                ],
                "responses": {
                    "200": {
                        "description": "Success",
                        "schema": {
                            "type": "string"
                        }
                    },
                    "400": {
                        "description": "Bad request",
                        "schema": {
                            "type": "string"
                        }
                    },
                    "401": {
                        "description": "Unauthorized",
                        "schema": {
                            "type": "string"
                        }
                    },
                    "403": {
                        "description": "Forbidden",
                        "schema": {
                            "type": "string"
                        }
                    },
                    "404": {
                        "description": "Not found",
                        "schema": {
                            "type": "string"
                        }
                    }
                }
            }
        }
    },
    "securityDefinitions": {
        "ApiKeyAuth": {
            "type": "apiKey",
            "name": "X-API-Key",
            "in": "header"
        },
        "ApiSecretAuth": {
            "type": "apiKey",
            "name": "X-Secret-Key",
            "in": "header"
        },
        "ApiUserAuth": {
            "type": "apiKey",
            "name": "User-Name",
            "in": "header"
        }
    }
}